{
  "ami_name": "auto-osbuild-qemu-rhel9-cki-ostree-aarch64-1234567.01234567",
  "arch": "aarch64",
  "os_version": "rhel9",
  "build_type": "osbuild",
  "image_name": "cki",
  "image_type": "tree",
  "UUID": "1234567.01234567",
  "compose_url": "http://example.com/os-9/dir/OS-9/OS-9.4.0-20230908.01/compose",
  "imageId": "ami-00000"
}
